
Grading Rubric for HW04

Two Files were created CrapsIf.java                          10 pts
                       CrapsSwitch.java
Random Code						 10 pts
User provided input					 5 pts //for CrapsIf, you should check the input which is out of range,
                                      I test, 2, 9, it gives me Yo-leven, which is not right
Determine Slang					 20 pts
Print the Slang					 10 pts
Comments						 10 pts
Compiles						 30 pts 
Total: 95
